// Jest Snapshot v1, https://goo.gl/fbAQLP

exports[`<TaskSingle /> renders correctly 1`] = `
<div
  className="sticky"
>
  <header>
    <nav
      className="navbar navbar-expand-md navbar-dark bg-#fff"
    >
      <a
        className="navbar-brand"
        href="/"
        onClick={[Function]}
        style={
          Object {
            "color": "#90278b",
          }
        }
      >
        <img
          alt="PaydByTest"
          className="header__logo"
          src="logo.png"
          title="PaydByTest"
        />
      </a>
      <button
        aria-label="Toggle navigation"
        className="navbar-toggler"
        onClick={[Function]}
        type="button"
      >
        <span
          className="navbar-toggler-icon"
        />
      </button>
      <div
        aria-expanded="false"
        className="collapse navbar-collapse"
        style={Object {}}
      >
        <ul
          className="ml-auto navbar-nav"
        >
          <li
            className="nav-item"
          >
            <a
              aria-current="page"
              className="nav-link active"
              href="/"
              onClick={[Function]}
              style={Object {}}
            >
              <span>
                Home
              </span>
            </a>
          </li>
          <li
            className="nav-item"
          >
            <a
              aria-current={null}
              className="nav-link"
              href="/tasks/"
              onClick={[Function]}
            >
              <span>
                Tasks
              </span>
            </a>
          </li>
          <li
            className="nav-item"
          >
            <a
              aria-current={null}
              className="nav-link"
              href="/posts/"
              onClick={[Function]}
            >
              <span>
                Posts
              </span>
            </a>
          </li>
        </ul>
      </div>
    </nav>
  </header>
  <div
    className="bg-dark text-white w-100 pb-2 pt-4 mb-0 rounded-0 jumbotron"
  >
    <div
      className="container"
    >
      <h1
        className="text-center"
      >
        PaydByTest - Tasks - test
      </h1>
    </div>
  </div>
  <div
    className="py-3 py-md-5 sticky-content"
  >
    <div
      className="container"
    >
      <div
        className="row"
      >
        <div
          className="col-md-12"
        />
        <div
          className="col-md-10 offset-md-1"
        >
          <div
            className="p-3 card"
          >
            <div
              className="card-body"
            >
              <div
                className="card-subtitle"
              >
                <h2>
                  subtitle test
                </h2>
              </div>
              <p
                className="card-text"
              >
                description
              </p>
            </div>
          </div>
        </div>
      </div>
      <div
        className="row"
      >
        <div
          className="text-center my-5 mb-md-0 col"
        >
          <a
            className="btn btn-secondary"
            href="/tasks/"
            onClick={[Function]}
          >
            Back
          </a>
        </div>
      </div>
    </div>
  </div>
  <div
    className="mobile-tab-bar d-md-none"
  >
    <ul
      className="nav nav-pills nav-fill"
    >
      <li
        className="nav-item"
      >
        <a
          aria-current="page"
          className="nav-link active"
          href="/"
          onClick={[Function]}
          style={Object {}}
        >
          <svg
            aria-hidden="true"
            className="svg-inline--fa fa-tachometer-alt fa-w-18 "
            data-icon="tachometer-alt"
            data-prefix="fas"
            focusable="false"
            role="img"
            style={Object {}}
            viewBox="0 0 576 512"
            xmlns="http://www.w3.org/2000/svg"
          >
            <path
              d="M288 32C128.94 32 0 160.94 0 320c0 52.8 14.25 102.26 39.06 144.8 5.61 9.62 16.3 15.2 27.44 15.2h443c11.14 0 21.83-5.58 27.44-15.2C561.75 422.26 576 372.8 576 320c0-159.06-128.94-288-288-288zm0 64c14.71 0 26.58 10.13 30.32 23.65-1.11 2.26-2.64 4.23-3.45 6.67l-9.22 27.67c-5.13 3.49-10.97 6.01-17.64 6.01-17.67 0-32-14.33-32-32S270.33 96 288 96zM96 384c-17.67 0-32-14.33-32-32s14.33-32 32-32 32 14.33 32 32-14.33 32-32 32zm48-160c-17.67 0-32-14.33-32-32s14.33-32 32-32 32 14.33 32 32-14.33 32-32 32zm246.77-72.41l-61.33 184C343.13 347.33 352 364.54 352 384c0 11.72-3.38 22.55-8.88 32H232.88c-5.5-9.45-8.88-20.28-8.88-32 0-33.94 26.5-61.43 59.9-63.59l61.34-184.01c4.17-12.56 17.73-19.45 30.36-15.17 12.57 4.19 19.35 17.79 15.17 30.36zm14.66 57.2l15.52-46.55c3.47-1.29 7.13-2.23 11.05-2.23 17.67 0 32 14.33 32 32s-14.33 32-32 32c-11.38-.01-20.89-6.28-26.57-15.22zM480 384c-17.67 0-32-14.33-32-32s14.33-32 32-32 32 14.33 32 32-14.33 32-32 32z"
              fill="currentColor"
              style={Object {}}
            />
          </svg>
          <span>
            Home
          </span>
        </a>
      </li>
      <li
        className="nav-item"
      >
        <a
          aria-current={null}
          className="nav-link"
          href="/tasks/"
          onClick={[Function]}
        >
          <svg
            aria-hidden="true"
            className="svg-inline--fa fa-palette fa-w-16 "
            data-icon="palette"
            data-prefix="fas"
            focusable="false"
            role="img"
            style={Object {}}
            viewBox="0 0 512 512"
            xmlns="http://www.w3.org/2000/svg"
          >
            <path
              d="M204.3 5C104.9 24.4 24.8 104.3 5.2 203.4c-37 187 131.7 326.4 258.8 306.7 41.2-6.4 61.4-54.6 42.5-91.7-23.1-45.4 9.9-98.4 60.9-98.4h79.7c35.8 0 64.8-29.6 64.9-65.3C511.5 97.1 368.1-26.9 204.3 5zM96 320c-17.7 0-32-14.3-32-32s14.3-32 32-32 32 14.3 32 32-14.3 32-32 32zm32-128c-17.7 0-32-14.3-32-32s14.3-32 32-32 32 14.3 32 32-14.3 32-32 32zm128-64c-17.7 0-32-14.3-32-32s14.3-32 32-32 32 14.3 32 32-14.3 32-32 32zm128 64c-17.7 0-32-14.3-32-32s14.3-32 32-32 32 14.3 32 32-14.3 32-32 32z"
              fill="currentColor"
              style={Object {}}
            />
          </svg>
          <span>
            Tasks
          </span>
        </a>
      </li>
      <li
        className="nav-item"
      >
        <a
          aria-current={null}
          className="nav-link"
          href="/posts/"
          onClick={[Function]}
        >
          <svg
            aria-hidden="true"
            className="svg-inline--fa fa-money-bill-wave fa-w-20 "
            data-icon="money-bill-wave"
            data-prefix="fas"
            focusable="false"
            role="img"
            style={Object {}}
            viewBox="0 0 640 512"
            xmlns="http://www.w3.org/2000/svg"
          >
            <path
              d="M621.16 54.46C582.37 38.19 543.55 32 504.75 32c-123.17-.01-246.33 62.34-369.5 62.34-30.89 0-61.76-3.92-92.65-13.72-3.47-1.1-6.95-1.62-10.35-1.62C15.04 79 0 92.32 0 110.81v317.26c0 12.63 7.23 24.6 18.84 29.46C57.63 473.81 96.45 480 135.25 480c123.17 0 246.34-62.35 369.51-62.35 30.89 0 61.76 3.92 92.65 13.72 3.47 1.1 6.95 1.62 10.35 1.62 17.21 0 32.25-13.32 32.25-31.81V83.93c-.01-12.64-7.24-24.6-18.85-29.47zM48 132.22c20.12 5.04 41.12 7.57 62.72 8.93C104.84 170.54 79 192.69 48 192.69v-60.47zm0 285v-47.78c34.37 0 62.18 27.27 63.71 61.4-22.53-1.81-43.59-6.31-63.71-13.62zM320 352c-44.19 0-80-42.99-80-96 0-53.02 35.82-96 80-96s80 42.98 80 96c0 53.03-35.83 96-80 96zm272 27.78c-17.52-4.39-35.71-6.85-54.32-8.44 5.87-26.08 27.5-45.88 54.32-49.28v57.72zm0-236.11c-30.89-3.91-54.86-29.7-55.81-61.55 19.54 2.17 38.09 6.23 55.81 12.66v48.89z"
              fill="currentColor"
              style={Object {}}
            />
          </svg>
          <span>
            Posts
          </span>
        </a>
      </li>
    </ul>
  </div>
  <footer
    className="bg-dark py-4"
  >
    <div
      className="container"
    >
      <div
        className="row"
      >
        <div
          className="col"
        >
          <p
            className="text-center text-secondary"
          >
            ©
             PaydByTest. All Rights Reserved.
          </p>
        </div>
      </div>
    </div>
  </footer>
</div>
`;
